…
**2. Among the interesting variables in gapminder is life expectancy. How has global life expectancy changed between 1952 and 2007?**

```r
gapminder
```

```
## # A tibble: 1,704 × 6
##    country     continent  year lifeExp      pop gdpPercap
##    <fct>       <fct>     <int>   <dbl>    <int>     <dbl>
##  1 Afghanistan Asia       1952    28.8  8425333      779.
##  2 Afghanistan Asia       1957    30.3  9240934      821.
##  3 Afghanistan Asia       1962    32.0 10267083      853.
##  4 Afghanistan Asia       1967    34.0 11537966      836.
##  5 Afghanistan Asia       1972    36.1 13079460      740.
##  6 Afghanistan Asia       1977    38.4 14880372      786.
##  7 Afghanistan Asia       1982    39.9 12881816      978.
##  8 Afghanistan Asia       1987    40.8 13867957      852.
##  9 Afghanistan Asia       1992    41.7 16317921      649.
## 10 Afghanistan Asia       1997    41.8 22227415      635.
## # ℹ 1,694 more rows
```
…
**7. Which countries have had the largest population growth since 1952?**

```r
gapminder %>% 
  select(country, year, pop) %>% 
  filter(year==1952|year==2007) %>% 
  pivot_wider(names_from = year,
              names_prefix = "yr_",
              values_from= pop) %>% 
  mutate(delta=yr_2007-yr_1952)
```

```
## # A tibble: 142 × 4
##    country      yr_1952   yr_2007     delta
##    <fct>          <int>     <int>     <int>
##  1 Afghanistan  8425333  31889923  23464590
##  2 Albania      1282697   3600523   2317826
##  3 Algeria      9279525  33333216  24053691
##  4 Angola       4232095  12420476   8188381
##  5 Argentina   17876956  40301927  22424971
##  6 Australia    8691212  20434176  11742964
##  7 Austria      6927772   8199783   1272011
##  8 Bahrain       120447    708573    588126
##  9 Bangladesh  46886859 150448339 103561480
## 10 Belgium      8730405  10392226   1661821
## # ℹ 132 more rows
```
…
