…
```r
wolves %>% 
  group_by(park, mort_all) %>% 
  summarise(total=n()) %>% 
  arrange(desc(mort_all))
```

```
## `summarise()` has grouped output by 'park'. You can override using the
## `.groups` argument.
```

```
## # A tibble: 28 × 3
## # Groups:   park [5]
##    park  mort_all total
##    <fct>    <int> <int>
##  1 YUCH        24     1
##  2 YUCH        14     1
##  3 YUCH        12     2
##  4 YUCH        10     1
##  5 YUCH         8     1
##  6 YUCH         5     2
##  7 DENA         4     1
##  8 GNTP         4     2
##  9 YNP          4     1
## 10 YUCH         4     3
## # ℹ 18 more rows
```
…
